module gitlab.com/Alexandrhub/grpc-auth-urlshortener

go 1.21.4

require (
	github.com/brianvoe/gofakeit/v6 v6.24.0
	github.com/fatih/color v1.16.0
	github.com/golang-jwt/jwt/v5 v5.1.0
	github.com/golang-migrate/migrate/v4 v4.16.2
	github.com/grpc-ecosystem/go-grpc-middleware/v2 v2.0.1
	github.com/ilyakaznacheev/cleanenv v1.5.0
	github.com/mattn/go-sqlite3 v1.14.18
	github.com/stretchr/testify v1.8.4
	golang.org/x/crypto v0.12.0
	golang.org/x/exp v0.0.0-20231110203233-9a3e6036ecaa
	google.golang.org/grpc v1.59.0
	google.golang.org/protobuf v1.31.0
)

require (
	github.com/BurntSushi/toml v1.3.2 // indirect
	github.com/davecgh/go-spew v1.1.1 // indirect
	github.com/golang/protobuf v1.5.3 // indirect
	github.com/hashicorp/errwrap v1.1.0 // indirect
	github.com/hashicorp/go-multierror v1.1.1 // indirect
	github.com/joho/godotenv v1.5.1 // indirect
	github.com/mattn/go-colorable v0.1.13 // indirect
	github.com/mattn/go-isatty v0.0.20 // indirect
	github.com/pmezard/go-difflib v1.0.0 // indirect
	go.uber.org/atomic v1.7.0 // indirect
	golang.org/x/net v0.14.0 // indirect
	golang.org/x/sys v0.14.0 // indirect
	golang.org/x/text v0.12.0 // indirect
	google.golang.org/genproto/googleapis/rpc v0.0.0-20230822172742-b8732ec3820d // indirect
	gopkg.in/yaml.v3 v3.0.1 // indirect
	olympos.io/encoding/edn v0.0.0-20201019073823-d3554ca0b0a3 // indirect
)
